Día 2 - Manejo de datos con Tidyverse. Programa de doctorado UAH
…
library(tidyverse)

recetas <- read_delim(file = "data/cuisines.csv", delim = ",")

recetas <- read_delim(
  file = "data/cuisines.csv",
  delim = ",",
  col_type = list(country = "f", servings="f"),
  # puedo especificar el tipo de dato (country como factor)
  )

recetas

# A tibble: 2,218 × 17
   name     country url   author date_published ingredients calories   fat carbs
   <chr>    <fct>   <chr> <chr>  <date>         <chr>          <dbl> <dbl> <dbl>
 1 Saganak… Greek   http… John … 2024-02-07     1 (4 ounce…      391    25    15
 2 Coney I… Jewish  http… John … 2024-11-26     2 ¾ cups a…      301    17    31
 3 Diana's… Austra… http… CHIPP… 2022-07-14     1 ½ cups w…       64     3     9
 4 Chilean… Chilean http… Heidi  2025-01-31     ½ cup chop…      106     9     7
 5 Tex-Mex… Tex-Mex http… Ann    2025-02-18     2 cups all…      449    23    58
 6 Newfoun… Canadi… http… MomWh… 2022-08-12     1 (3 pound…      958    24   144
 7 Pasta e… Italian http… Buckw… 2023-12-12     1 cup dry …      378    10    59
 8 Danish … Danish  http… TheOt… 2020-06-19     4 cups all…       90     5    10
 9 Lemon P… Amish … http… Laura… 2025-01-21     2 cups all…      157     6    25
10 Pan con… Spanish http… Luis … 2025-06-02     1 large to…      322    16    39
# ℹ 2,208 more rows
# ℹ 8 more variables: protein <dbl>, avg_rating <dbl>, total_ratings <dbl>,
#   reviews <dbl>, prep_time <dbl>, cook_time <dbl>, total_time <dbl>,
#   servings <fct>
…
recetas |>
  slice(-c(1:5)) # todas las filas excepto de la 1 a la 5

# A tibble: 2,213 × 17
   name     country url   author date_published ingredients calories   fat carbs
   <chr>    <fct>   <chr> <chr>  <date>         <chr>          <dbl> <dbl> <dbl>
 1 Newfoun… Canadi… http… MomWh… 2022-08-12     1 (3 pound…      958    24   144
 2 Pasta e… Italian http… Buckw… 2023-12-12     1 cup dry …      378    10    59
 3 Danish … Danish  http… TheOt… 2020-06-19     4 cups all…       90     5    10
 4 Lemon P… Amish … http… Laura… 2025-01-21     2 cups all…      157     6    25
 5 Pan con… Spanish http… Luis … 2025-06-02     1 large to…      322    16    39
 6 Traci's… Filipi… http… Traci… 2022-08-28     2 tablespo…        4     0     1
 7 Brazili… Brazil… http… JESSY… 2022-09-25     1 cup whit…       NA    NA    NA
 8 Lomo de… Cuban   http… lillo… 2024-12-19     1 tablespo…      389    21    16
 9 Peruvia… Peruvi… http… Kat N… 2022-09-15     1 gallon w…      253     2    63
10 Chef Jo… Southe… http… John … 2023-12-08     1  whole c…     1115    66    75
# ℹ 2,203 more rows
# ℹ 8 more variables: protein <dbl>, avg_rating <dbl>, total_ratings <dbl>,
#   reviews <dbl>, prep_time <dbl>, cook_time <dbl>, total_time <dbl>,
#   servings <fct>

4.2 Arrange: ordenar filas por los valores de una o más variables (columnas)

recetas |>
  arrange(prep_time)

# A tibble: 2,218 × 17
   name     country url   author date_published ingredients calories   fat carbs
   <chr>    <fct>   <chr> <chr>  <date>         <chr>          <dbl> <dbl> <dbl>
 1 Lemon P… Amish … http… Laura… 2025-01-21     2 cups all…      157     6    25
 2 Rose Wa… Turkish http… thr33… 2025-02-27     cooking sp…       70    NA    17
 3 Jewish … Jewish  http… Sara   2022-08-04     ½ cup butt…      364    21    40
 4 Nanaimo… Canadi… http… Sheal… 2022-08-22     ½ cup butt…      389    23    47
 5 Pumpkin… Amish … http… Carol… 2022-08-08     1 (9 inch)…      228     8    34
 6 Pan De … Filipi… http… THEO72 2020-06-18     2 cups war…      175     3    32
 7 Dutch C… Dutch   http… Tracy… 2024-12-01     ½ cup butt…      107     6    13
 8 Dutch A… Dutch   http… Carol  2022-08-22     ½ cup shor…      193     8    30
 9 Hawaiia… Austra… http… Jan T… 2022-07-14     1 ¾ cups a…      131     6    18
10 Spiced … Jamaic… http… Barba… 2022-08-22     2 pounds c…       37    NA     9
# ℹ 2,208 more rows
# ℹ 8 more variables: protein <dbl>, avg_rating <dbl>, total_ratings <dbl>,
#   reviews <dbl>, prep_time <dbl>, cook_time <dbl>, total_time <dbl>,
#   servings <fct>

recetas |> 
  arrange(desc(prep_time))

# A tibble: 2,218 × 17
   name     country url   author date_published ingredients calories   fat carbs
   <chr>    <fct>   <chr> <chr>  <date>         <chr>          <dbl> <dbl> <dbl>
 1 Malasad… Portug… http… Scotty 2020-06-18     1 teaspoon…      121     5    17
 2 Kringla… Norweg… http… MBPG   2020-06-18     1 cup heav…      167     7    24
 3 Maria's… Portug… http… BINGA… 2024-11-21     2 pounds d…      701    31    25
 4 Feijoad… Brazil… http… L Ire… 2025-02-10     1 tablespo…      381    18    31
 5 Sushi P… Amish … http… Marcia 2022-01-04     9 ¾ cups w…      516    12    88
 6 Lahmacu… Dutch   http… lysis  2025-03-10     1  yellow …      480    20    58
 7 Fårikål  Norweg… http… KATHY… 2024-11-21     8 ounces s…      123     2    18
 8 Lebanes… Lebane… http… Arlet… 2024-04-30     1 ½ pounds…      198    10    26
 9 Galakto… Greek   http… GapGi… 2025-06-05     2 ½ cups w…      367    14    52
10 Italian… Austri… http… LaLee… 2020-06-18     12 ounces …       99     5    12
# ℹ 2,208 more rows
# ℹ 8 more variables: protein <dbl>, avg_rating <dbl>, total_ratings <dbl>,
#   reviews <dbl>, prep_time <dbl>, cook_time <dbl>, total_time <dbl>,
#   servings <fct>

4.3 Filter: filtrar filas utilizando condiciones

Se necesita un vector de filtrado que contenga valores lógicos (TRUE/FALSE).

recetas |>
  filter(country == "Chilean") # filtrar por filas que cumplen un patrón 

# A tibble: 22 × 17
   name     country url   author date_published ingredients calories   fat carbs
   <chr>    <fct>   <chr> <chr>  <date>         <chr>          <dbl> <dbl> <dbl>
 1 Chilean… Chilean http… Heidi  2025-01-31     ½ cup chop…      106     9     7
 2 Pebre    Chilean http… Buckw… 2025-04-09     1  dried a…      164    14    10
 3 Porotos… Chilean http… Stefa… 2021-12-29     1 tablespo…      285     4    53
 4 Ajiaco … Chilean http… damas… 2025-02-16     2 tablespo…      579    24    34
 5 Chilean… Chilean http… Alici… 2022-10-18     1 tablespo…      530    28    54
 6 Empanad… Chilean http… damas… 2019-04-02     3 cups all…      343    14    39
 7 Pastel … Chilean http… Epicu… 2025-04-08     2  eggs, 1…      435    21    38
 8 Pastel … Chilean http… Cucin… 2024-11-22     5 cups pot…      366    25    22
 9 Leche A… Chilean http… damas… 2020-06-18     1 quart wh…      258     9    25
10 Chilean… Chilean http… Barba… 2025-06-04     4 cups all…      477    28    49
# ℹ 12 more rows
# ℹ 8 more variables: protein <dbl>, avg_rating <dbl>, total_ratings <dbl>,
#   reviews <dbl>, prep_time <dbl>, cook_time <dbl>, total_time <dbl>,
#   servings <fct>
…
#En este caso, todas las recetas chilenas (independientemente del tiempo de preparación) o bien aquellas recetas que se preparen en menos de 60mins (independientemente del país)

recetas |>
  filter(country %in% c("Chilean", "Brazilian", "Peruvian")) # combinar criterios: %in% 

# A tibble: 127 × 17
   name     country url   author date_published ingredients calories   fat carbs
   <chr>    <fct>   <chr> <chr>  <date>         <chr>          <dbl> <dbl> <dbl>
 1 Chilean… Chilean http… Heidi  2025-01-31     ½ cup chop…      106     9     7
 2 Brazili… Brazil… http… JESSY… 2022-09-25     1 cup whit…       NA    NA    NA
 3 Peruvia… Peruvi… http… Kat N… 2022-09-15     1 gallon w…      253     2    63
 4 Pebre    Chilean http… Buckw… 2025-04-09     1  dried a…      164    14    10
 5 Porotos… Chilean http… Stefa… 2021-12-29     1 tablespo…      285     4    53
 6 Brazili… Brazil… http… Socce… 2023-02-13     1 cup brow…      255     0    66
 7 Pollo S… Peruvi… http… Laure… 2025-02-03     2 large sk…      351    11    37
 8 Citrus … Peruvi… http… Lorna  2025-01-28     ½ cup fres…      440    29    17
 9 Ajiaco … Chilean http… damas… 2025-02-16     2 tablespo…      579    24    34
10 Brazili… Brazil… http… Cacau  2020-03-05     3 tablespo…      451    11    83
# ℹ 117 more rows
# ℹ 8 more variables: protein <dbl>, avg_rating <dbl>, total_ratings <dbl>,
#   reviews <dbl>, prep_time <dbl>, cook_time <dbl>, total_time <dbl>,
#   servings <fct>

#En este caso, todas las recetas de países del cono sur. Es equivalente a:

recetas |>
  filter(country == "Chilean" | country == "Brazilian"| country == "Peruvian")

# A tibble: 127 × 17
   name     country url   author date_published ingredients calories   fat carbs
   <chr>    <fct>   <chr> <chr>  <date>         <chr>          <dbl> <dbl> <dbl>
 1 Chilean… Chilean http… Heidi  2025-01-31     ½ cup chop…      106     9     7
 2 Brazili… Brazil… http… JESSY… 2022-09-25     1 cup whit…       NA    NA    NA
 3 Peruvia… Peruvi… http… Kat N… 2022-09-15     1 gallon w…      253     2    63
 4 Pebre    Chilean http… Buckw… 2025-04-09     1  dried a…      164    14    10
 5 Porotos… Chilean http… Stefa… 2021-12-29     1 tablespo…      285     4    53
 6 Brazili… Brazil… http… Socce… 2023-02-13     1 cup brow…      255     0    66
 7 Pollo S… Peruvi… http… Laure… 2025-02-03     2 large sk…      351    11    37
 8 Citrus … Peruvi… http… Lorna  2025-01-28     ½ cup fres…      440    29    17
 9 Ajiaco … Chilean http… damas… 2025-02-16     2 tablespo…      579    24    34
10 Brazili… Brazil… http… Cacau  2020-03-05     3 tablespo…      451    11    83
# ℹ 117 more rows
# ℹ 8 more variables: protein <dbl>, avg_rating <dbl>, total_ratings <dbl>,
#   reviews <dbl>, prep_time <dbl>, cook_time <dbl>, total_time <dbl>,
#   servings <fct>
…
names(recetas)

 [1] "name"           "country"        "url"            "author"        
 [5] "date_published" "ingredients"    "calories"       "fat"           
 [9] "carbs"          "protein"        "avg_rating"     "total_ratings" 
[13] "reviews"        "prep_time"      "cook_time"      "total_time"    
[17] "servings"      

# ?select

recetas |> 
  select(name, calories, fat, carbs, protein) #solo nos interesan las columnas con informacion nutricional de cada receta

# A tibble: 2,218 × 5
   name                                           calories   fat carbs protein
   <chr>                                             <dbl> <dbl> <dbl>   <dbl>
 1 Saganaki (Flaming Greek Cheese)                     391    25    15      16
 2 Coney Island Knishes                                301    17    31       7
 3 Diana's Hawaiian Bread Rolls                         64     3     9       1
 4 Chilean Pebre                                       106     9     7       1
 5 Tex-Mex Sheet Cake                                  449    23    58       7
 6 Newfoundland Jigg's Dinner                          958    24   144      46
 7 Pasta e Ceci (Italian Chickpea and Pasta Stew)      378    10    59      14
 8 Danish Butter Cookies                                90     5    10       1
 9 Lemon Poppy Seed Amish Friendship Bread             157     6    25       2
10 Pan con Tomate (Spanish Tomato Bread)               322    16    39       7
# ℹ 2,208 more rows

recetas |> 
  select(name, calories, fat, carbs, protein)

# A tibble: 2,218 × 5
   name                                           calories   fat carbs protein
   <chr>                                             <dbl> <dbl> <dbl>   <dbl>
 1 Saganaki (Flaming Greek Cheese)                     391    25    15      16
 2 Coney Island Knishes                                301    17    31       7
 3 Diana's Hawaiian Bread Rolls                         64     3     9       1
 4 Chilean Pebre                                       106     9     7       1
 5 Tex-Mex Sheet Cake                                  449    23    58       7
 6 Newfoundland Jigg's Dinner                          958    24   144      46
 7 Pasta e Ceci (Italian Chickpea and Pasta Stew)      378    10    59      14
 8 Danish Butter Cookies                                90     5    10       1
 9 Lemon Poppy Seed Amish Friendship Bread             157     6    25       2
10 Pan con Tomate (Spanish Tomato Bread)               322    16    39       7
# ℹ 2,208 more rows

# Se puede usar un patron de texto pra seleccionar colmnas
recetas |>
  select(ends_with("time")) # solo nos interesan las columnas relacionadas con el tiempo

# A tibble: 2,218 × 3
   prep_time cook_time total_time
       <dbl>     <dbl>      <dbl>
 1        10         5         15
 2        30        75        180
 3        20        15        180
 4        10         0         10
 5        30        15         45
 6        30       165        675
 7        30        75        585
 8        40        30        155
 9         0         0          0
10         5         5         10
# ℹ 2,208 more rows

# se pueden utilizar todo tipo de patrones de texto: https://rstudio.github.io/cheatsheets/strings.pdf

recetas |>
  select(name,author, everything()) # se puede usar para reordenar variables

# A tibble: 2,218 × 17
   name     author country url   date_published ingredients calories   fat carbs
   <chr>    <chr>  <fct>   <chr> <date>         <chr>          <dbl> <dbl> <dbl>
 1 Saganak… John … Greek   http… 2024-02-07     1 (4 ounce…      391    25    15
 2 Coney I… John … Jewish  http… 2024-11-26     2 ¾ cups a…      301    17    31
 3 Diana's… CHIPP… Austra… http… 2022-07-14     1 ½ cups w…       64     3     9
 4 Chilean… Heidi  Chilean http… 2025-01-31     ½ cup chop…      106     9     7
 5 Tex-Mex… Ann    Tex-Mex http… 2025-02-18     2 cups all…      449    23    58
 6 Newfoun… MomWh… Canadi… http… 2022-08-12     1 (3 pound…      958    24   144
 7 Pasta e… Buckw… Italian http… 2023-12-12     1 cup dry …      378    10    59
 8 Danish … TheOt… Danish  http… 2020-06-19     4 cups all…       90     5    10
 9 Lemon P… Laura… Amish … http… 2025-01-21     2 cups all…      157     6    25
10 Pan con… Luis … Spanish http… 2025-06-02     1 large to…      322    16    39
# ℹ 2,208 more rows
# ℹ 8 more variables: protein <dbl>, avg_rating <dbl>, total_ratings <dbl>,
#   reviews <dbl>, prep_time <dbl>, cook_time <dbl>, total_time <dbl>,
#   servings <fct>

recetas |>
  select(recipes_name=name, country, author, reviews) # y para renombrarlas a la vez que hacemos la seleccion

# A tibble: 2,218 × 4
   recipes_name                                   country         author reviews
   <chr>                                          <fct>           <chr>    <dbl>
 1 Saganaki (Flaming Greek Cheese)                Greek           John …      22
 2 Coney Island Knishes                           Jewish          John …       9
 3 Diana's Hawaiian Bread Rolls                   Australian and… CHIPP…     104
 4 Chilean Pebre                                  Chilean         Heidi        1
 5 Tex-Mex Sheet Cake                             Tex-Mex         Ann         11
 6 Newfoundland Jigg's Dinner                     Canadian        MomWh…      32
 7 Pasta e Ceci (Italian Chickpea and Pasta Stew) Italian         Buckw…       3
 8 Danish Butter Cookies                          Danish          TheOt…      NA
 9 Lemon Poppy Seed Amish Friendship Bread        Amish and Menn… Laura…      55
10 Pan con Tomate (Spanish Tomato Bread)          Spanish         Luis …       2
# ℹ 2,208 more rows
…
    # utilizando una variable para calcular otra (ej.- el numero de personas que       han dejado una puntuación pero no han escrito un review)
    num_ratings_no_review = total_ratings - reviews) |>
  
  select(
    ID, 
    name:date_published, 
    total_ratings,
    reviews,
    num_ratings_no_review,
    everything()
  )

# A tibble: 2,218 × 19
      ID name          country url   author date_published total_ratings reviews
   <int> <chr>         <fct>   <chr> <chr>  <date>                 <dbl>   <dbl>
 1     1 Saganaki (Fl… Greek   http… John … 2024-02-07                25      22
 2     2 Coney Island… Jewish  http… John … 2024-11-26                10       9
 3     3 Diana's Hawa… Austra… http… CHIPP… 2022-07-14               126     104
 4     4 Chilean Pebre Chilean http… Heidi  2025-01-31                 1       1
 5     5 Tex-Mex Shee… Tex-Mex http… Ann    2025-02-18                13      11
 6     6 Newfoundland… Canadi… http… MomWh… 2022-08-12                40      32
 7     7 Pasta e Ceci… Italian http… Buckw… 2023-12-12                 3       3
 8     8 Danish Butte… Danish  http… TheOt… 2020-06-19                NA      NA
 9     9 Lemon Poppy … Amish … http… Laura… 2025-01-21                65      55
10    10 Pan con Toma… Spanish http… Luis … 2025-06-02                 2       2
# ℹ 2,208 more rows
# ℹ 11 more variables: num_ratings_no_review <dbl>, ingredients <chr>,
#   calories <dbl>, fat <dbl>, carbs <dbl>, protein <dbl>, avg_rating <dbl>,
#   prep_time <dbl>, cook_time <dbl>, total_time <dbl>, servings <fct>

# sobreescribir una variable.
recetas |>
  mutate(
    
    # fct_recode sirve para redefinir los niveles de un factor (ojo sintaxis:          new_name="old_name")
    servings = fct_recode(
      servings,
      una_persona = "1" ,
      dos_personas = "2",
      tres_personas = "3" 
      ))

# A tibble: 2,218 × 17
   name     country url   author date_published ingredients calories   fat carbs
   <chr>    <fct>   <chr> <chr>  <date>         <chr>          <dbl> <dbl> <dbl>
 1 Saganak… Greek   http… John … 2024-02-07     1 (4 ounce…      391    25    15
 2 Coney I… Jewish  http… John … 2024-11-26     2 ¾ cups a…      301    17    31
 3 Diana's… Austra… http… CHIPP… 2022-07-14     1 ½ cups w…       64     3     9
 4 Chilean… Chilean http… Heidi  2025-01-31     ½ cup chop…      106     9     7
 5 Tex-Mex… Tex-Mex http… Ann    2025-02-18     2 cups all…      449    23    58
 6 Newfoun… Canadi… http… MomWh… 2022-08-12     1 (3 pound…      958    24   144
 7 Pasta e… Italian http… Buckw… 2023-12-12     1 cup dry …      378    10    59
 8 Danish … Danish  http… TheOt… 2020-06-19     4 cups all…       90     5    10
 9 Lemon P… Amish … http… Laura… 2025-01-21     2 cups all…      157     6    25
10 Pan con… Spanish http… Luis … 2025-06-02     1 large to…      322    16    39
# ℹ 2,208 more rows
# ℹ 8 more variables: protein <dbl>, avg_rating <dbl>, total_ratings <dbl>,
#   reviews <dbl>, prep_time <dbl>, cook_time <dbl>, total_time <dbl>,
#   servings <fct>
…
      avg_rating < 2 &
        country %in% c(
          "Chilean",
          "Brazilian",
          "Peruvian",
          "Cuban",
          "Puerto Rican",
          "Colombian"
        )  ~ "lowest‑rated_Latin_cuisine",
      
      TRUE ~ "others" #resto de casos
    )
  )

# A tibble: 2,218 × 18
   name     country url   author date_published ingredients calories   fat carbs
   <chr>    <fct>   <chr> <chr>  <date>         <chr>          <dbl> <dbl> <dbl>
 1 Saganak… Greek   http… John … 2024-02-07     1 (4 ounce…      391    25    15
 2 Coney I… Jewish  http… John … 2024-11-26     2 ¾ cups a…      301    17    31
 3 Diana's… Austra… http… CHIPP… 2022-07-14     1 ½ cups w…       64     3     9
 4 Chilean… Chilean http… Heidi  2025-01-31     ½ cup chop…      106     9     7
 5 Tex-Mex… Tex-Mex http… Ann    2025-02-18     2 cups all…      449    23    58
 6 Newfoun… Canadi… http… MomWh… 2022-08-12     1 (3 pound…      958    24   144
 7 Pasta e… Italian http… Buckw… 2023-12-12     1 cup dry …      378    10    59
 8 Danish … Danish  http… TheOt… 2020-06-19     4 cups all…       90     5    10
 9 Lemon P… Amish … http… Laura… 2025-01-21     2 cups all…      157     6    25
10 Pan con… Spanish http… Luis … 2025-06-02     1 large to…      322    16    39
# ℹ 2,208 more rows
# ℹ 9 more variables: protein <dbl>, avg_rating <dbl>, total_ratings <dbl>,
#   reviews <dbl>, prep_time <dbl>, cook_time <dbl>, total_time <dbl>,
#   servings <fct>, classification <chr>
…
