Día 2 - Manejo y visualización de datos en R (soluciones)
…
## Crea un subset que NO contenga los animales domésticos (campo conservation). ¿Cuantas son?

msleep |>  filter(conservation != "domesticated")

# A tibble: 44 × 12
    ...1 name   genus vore  order conservation sleep_total sleep_rem sleep_cycle
   <dbl> <chr>  <chr> <chr> <chr> <chr>              <dbl>     <dbl>       <dbl>
 1     1 Cheet… Acin… carni Carn… lc                  12.1      NA        NA    
 2     3 Mount… Aplo… herbi Rode… nt                  14.4       2.4      NA    
 3     4 Great… Blar… omni  Sori… lc                  14.9       2.3       0.133
 4     7 North… Call… carni Carn… vu                   8.7       1.4       0.383
 5    10 Roe d… Capr… herbi Arti… lc                   3        NA        NA    
 6    11 Goat   Capri herbi Arti… lc                   5.3       0.6      NA    
 7    13 Grivet Cerc… omni  Prim… lc                  10         0.7      NA    
 8    15 Star-… Cond… omni  Sori… lc                  10.3       2.2      NA    
 9    17 Lesse… Cryp… omni  Sori… lc                   9.1       1.4       0.15 
10    18 Long-… Dasy… carni Cing… lc                  17.4       3.1       0.383
# ℹ 34 more rows
# ℹ 3 more variables: awake <dbl>, brainwt <dbl>, bodywt <dbl>

#### Otras posibles soluciones...
msleep |>  filter(conservation %in% c("lc", "nt", "vu", "en", "cd", NA))

# A tibble: 73 × 12
    ...1 name   genus vore  order conservation sleep_total sleep_rem sleep_cycle
   <dbl> <chr>  <chr> <chr> <chr> <chr>              <dbl>     <dbl>       <dbl>
 1     1 Cheet… Acin… carni Carn… lc                  12.1      NA        NA    
 2     2 Owl m… Aotus omni  Prim… <NA>                17         1.8      NA    
 3     3 Mount… Aplo… herbi Rode… nt                  14.4       2.4      NA    
 4     4 Great… Blar… omni  Sori… lc                  14.9       2.3       0.133
 5     6 Three… Brad… herbi Pilo… <NA>                14.4       2.2       0.767
 6     7 North… Call… carni Carn… vu                   8.7       1.4       0.383
 7     8 Vespe… Calo… <NA>  Rode… <NA>                 7        NA        NA    
 8    10 Roe d… Capr… herbi Arti… lc                   3        NA        NA    
 9    11 Goat   Capri herbi Arti… lc                   5.3       0.6      NA    
10    13 Grivet Cerc… omni  Prim… lc                  10         0.7      NA    
# ℹ 63 more rows
# ℹ 3 more variables: awake <dbl>, brainwt <dbl>, bodywt <dbl>

msleep |>  filter(
  conservation == "lc" | conservation == "nt" |
    conservation == "vu" | conservation == "en" |
    conservation == "cd" | is.na(conservation)
)

# A tibble: 73 × 12
    ...1 name   genus vore  order conservation sleep_total sleep_rem sleep_cycle
   <dbl> <chr>  <chr> <chr> <chr> <chr>              <dbl>     <dbl>       <dbl>
 1     1 Cheet… Acin… carni Carn… lc                  12.1      NA        NA    
 2     2 Owl m… Aotus omni  Prim… <NA>                17         1.8      NA    
 3     3 Mount… Aplo… herbi Rode… nt                  14.4       2.4      NA    
 4     4 Great… Blar… omni  Sori… lc                  14.9       2.3       0.133
 5     6 Three… Brad… herbi Pilo… <NA>                14.4       2.2       0.767
 6     7 North… Call… carni Carn… vu                   8.7       1.4       0.383
 7     8 Vespe… Calo… <NA>  Rode… <NA>                 7        NA        NA    
 8    10 Roe d… Capr… herbi Arti… lc                   3        NA        NA    
 9    11 Goat   Capri herbi Arti… lc                   5.3       0.6      NA    
10    13 Grivet Cerc… omni  Prim… lc                  10         0.7      NA    
# ℹ 63 more rows
# ℹ 3 more variables: awake <dbl>, brainwt <dbl>, bodywt <dbl>
…
Con el data set de msleep, incluye una nueva columna con el porcentaje de horas que duerme cada animal al día.

Haz una clasificación que incluya tres categorías: carnivoros amenazados, herviboros amenazados y otros. Para ello tienes que basarte en las columnas “vore” y “conservation”. Segun la UICN se considera amenazado cuando está en las categorías vulnerable (vu), endangered (en) o critically endangered (cd).

## Nueva columna con el porcentaje de horas que duerme cada animal al día.

msleep |> mutate(sleep_prc = (sleep_total / 24) * 100)

# A tibble: 83 × 13
    ...1 name   genus vore  order conservation sleep_total sleep_rem sleep_cycle
   <dbl> <chr>  <chr> <chr> <chr> <chr>              <dbl>     <dbl>       <dbl>
 1     1 Cheet… Acin… carni Carn… lc                  12.1      NA        NA    
 2     2 Owl m… Aotus omni  Prim… <NA>                17         1.8      NA    
 3     3 Mount… Aplo… herbi Rode… nt                  14.4       2.4      NA    
 4     4 Great… Blar… omni  Sori… lc                  14.9       2.3       0.133
 5     5 Cow    Bos   herbi Arti… domesticated         4         0.7       0.667
 6     6 Three… Brad… herbi Pilo… <NA>                14.4       2.2       0.767
 7     7 North… Call… carni Carn… vu                   8.7       1.4       0.383
 8     8 Vespe… Calo… <NA>  Rode… <NA>                 7        NA        NA    
 9     9 Dog    Canis carni Carn… domesticated        10.1       2.9       0.333
10    10 Roe d… Capr… herbi Arti… lc                   3        NA        NA    
# ℹ 73 more rows
# ℹ 4 more variables: awake <dbl>, brainwt <dbl>, bodywt <dbl>, sleep_prc <dbl>
…
msleep |>
  mutate(
    classification = case_when(
      # utilizar varias variables para calcular otra nueva
      vore == "carni" &
        conservation %in% c("en", "cd") ~ "threatened carnivore",
      
      vore == "herbivore" &
        conservation %in% c("en", "cd") ~ "threatened herbivore",
      
      TRUE ~ "others" #resto de casos
    )
  )

# A tibble: 83 × 13
    ...1 name   genus vore  order conservation sleep_total sleep_rem sleep_cycle
   <dbl> <chr>  <chr> <chr> <chr> <chr>              <dbl>     <dbl>       <dbl>
 1     1 Cheet… Acin… carni Carn… lc                  12.1      NA        NA    
 2     2 Owl m… Aotus omni  Prim… <NA>                17         1.8      NA    
 3     3 Mount… Aplo… herbi Rode… nt                  14.4       2.4      NA    
 4     4 Great… Blar… omni  Sori… lc                  14.9       2.3       0.133
 5     5 Cow    Bos   herbi Arti… domesticated         4         0.7       0.667
 6     6 Three… Brad… herbi Pilo… <NA>                14.4       2.2       0.767
 7     7 North… Call… carni Carn… vu                   8.7       1.4       0.383
 8     8 Vespe… Calo… <NA>  Rode… <NA>                 7        NA        NA    
 9     9 Dog    Canis carni Carn… domesticated        10.1       2.9       0.333
10    10 Roe d… Capr… herbi Arti… lc                   3        NA        NA    
# ℹ 73 more rows
# ℹ 4 more variables: awake <dbl>, brainwt <dbl>, bodywt <dbl>,
#   classification <chr>
…
